<?xml version="1.0" encoding="UTF-8" standalone="no"?>
<!-- Created with Inkscape (http://www.inkscape.org/) -->

<svg
   width="25.4mm"
   height="25.4mm"
   viewBox="0 0 25.4 25.4"
   version="1.1"
   id="svg5"
   inkscape:version="1.2 (56b05e47e7, 2022-06-09, custom)"
   sodipodi:docname="Komfort_favicon_96x96.svg"
   xmlns:inkscape="http://www.inkscape.org/namespaces/inkscape"
   xmlns:sodipodi="http://sodipodi.sourceforge.net/DTD/sodipodi-0.dtd"
   xmlns="http://www.w3.org/2000/svg"
   xmlns:svg="http://www.w3.org/2000/svg">
  <sodipodi:namedview
     id="namedview7"
     pagecolor="#505050"
     bordercolor="#eeeeee"
     borderopacity="1"
     inkscape:showpageshadow="0"
     inkscape:pageopacity="0"
     inkscape:pagecheckerboard="0"
     inkscape:deskcolor="#505050"
     inkscape:document-units="mm"
     showgrid="false"
     inkscape:zoom="0.75722503"
     inkscape:cx="302.42001"
     inkscape:cy="153.85123"
     inkscape:window-width="1858"
     inkscape:window-height="1016"
     inkscape:window-x="62"
     inkscape:window-y="27"
     inkscape:window-maximized="1"
     inkscape:current-layer="layer1" />
  <defs
     id="defs2" />
  <g
     inkscape:label="Layer 1"
     inkscape:groupmode="layer"
     id="layer1"
     transform="translate(-25.16248,-29.379844)">
    
    
    
    <g
   id="g192"
   transform="matrix(0.17478124,0,0,0.19086699,20.764551,23.772201)">
  <path
     d="m 67.087561,91.325418 h 17.205855 v 22.868992 h 1.73302 L 106.32712,91.325418 h 23.89029 l -29.46056,31.481972 34.16459,39.6494 H 109.79316 L 85.779051,132.45992 h -1.485635 v 29.84844 H 67.087561 Z"
     style="fill:#66b821;fill-rule:nonzero;stroke-width:0.264583"
     id="path9" />
  <path
     d="m 97.889559,29.379845 h -0.129646 l -72.597433,72.609865 6.115843,5.58747 66.546413,-65.499187 67.075584,65.499187 5.58668,-5.58747 z"
     style="fill:#d96522;fill-rule:nonzero;stroke-width:0.264583"
     id="path11" />
  <rect
     x="45.653931"
     y="102.63107"
     width="11.070167"
     height="59.825733"
     style="fill:#67300c;stroke-width:0.264583"
     id="rect13" />
  <rect
     x="140.10303"
     y="102.63107"
     width="11.070167"
     height="59.825733"
     style="fill:#67300c;stroke-width:0.264583"
     id="rect15" />
</g>

</g>
</svg>
